\relax 
\providecommand\hyper@newdestlabel[2]{}
\@writefile{toc}{\contentsline {chapter}{\numberline {1}Introduction}{1}{chapter.16}}
\@writefile{lof}{\addvspace {10\p@ }}
\@writefile{lot}{\addvspace {10\p@ }}
\newlabel{chap:introductionchapter}{{1}{1}{Introduction}{chapter.16}{}}
\citation{linkeddataprinciples}
\@writefile{toc}{\contentsline {section}{\numberline {1.1}Context}{3}{section.17}}
\@writefile{toc}{\contentsline {section}{\numberline {1.2}Master thesis goals}{4}{section.25}}
\@writefile{toc}{\contentsline {section}{\numberline {1.3}Structure of this Master Thesis}{4}{section.26}}
\@setckpt{1-introduction}{
\setcounter{page}{6}
\setcounter{equation}{0}
\setcounter{enumi}{4}
\setcounter{enumii}{0}
\setcounter{enumiii}{0}
\setcounter{enumiv}{0}
\setcounter{footnote}{3}
\setcounter{mpfootnote}{0}
\setcounter{part}{0}
\setcounter{chapter}{1}
\setcounter{section}{3}
\setcounter{subsection}{0}
\setcounter{subsubsection}{0}
\setcounter{paragraph}{0}
\setcounter{subparagraph}{0}
\setcounter{figure}{0}
\setcounter{table}{0}
\setcounter{parentequation}{0}
\setcounter{cor}{0}
\setcounter{thm}{0}
\setcounter{LT@tables}{0}
\setcounter{LT@chunks}{0}
\setcounter{ContinuedFloat}{0}
\setcounter{KVtest}{0}
\setcounter{subfigure}{0}
\setcounter{subfigure@save}{0}
\setcounter{lofdepth}{1}
\setcounter{subtable}{0}
\setcounter{subtable@save}{0}
\setcounter{lotdepth}{1}
\setcounter{lstnumber}{1}
\setcounter{Item}{4}
\setcounter{Hfootnote}{5}
\setcounter{bookmark@seq@number}{10}
\setcounter{lstlisting}{0}
\setcounter{section@level}{0}
}
