\relax 
\providecommand\hyper@newdestlabel[2]{}
\citation{geolinkeddata1}
\citation{geolinkeddata2}
\citation{robertobermejo}
\@writefile{toc}{\contentsline {chapter}{\numberline {2}Enabling Technologies}{7}{chapter.27}}
\@writefile{lof}{\addvspace {10\p@ }}
\@writefile{lot}{\addvspace {10\p@ }}
\newlabel{chap:enabling_technologies}{{2}{7}{Enabling Technologies}{chapter.27}{}}
\citation{geolinkeddata3}
\@writefile{toc}{\contentsline {section}{\numberline {2.1}Overview}{9}{section.30}}
\@writefile{lof}{\contentsline {figure}{\numberline {2.1}{\ignorespaces Linked Open Data cloud }}{9}{figure.caption.32}}
\providecommand*\caption@xref[2]{\@setref\relax\@undefined{#1}}
\newlabel{fig:lodcloud}{{2.1}{9}{Linked Open Data cloud}{figure.caption.32}{}}
\citation{linkeddataprinciples}
\@writefile{toc}{\contentsline {section}{\numberline {2.2}Linked Data in a Nutshell}{10}{section.38}}
\newlabel{sec:linkeddata}{{2.2}{10}{Linked Data in a Nutshell}{section.38}{}}
\@writefile{lol}{\contentsline {lstlisting}{\numberline {2.1}RDF/XML document example}{11}{lstlisting.43}}
\citation{robertobermejo}
\newlabel{lst:sparql}{{2.2}{12}{SPARQL query example}{lstlisting.58}{}}
\@writefile{lol}{\contentsline {lstlisting}{\numberline {2.2}SPARQL query example}{12}{lstlisting.58}}
\@writefile{toc}{\contentsline {section}{\numberline {2.3}Sefarad}{13}{section.72}}
\newlabel{sec:sefarad}{{2.3}{13}{Sefarad}{section.72}{}}
\@writefile{lof}{\contentsline {figure}{\numberline {2.2}{\ignorespaces Main Layout\relax }}{13}{figure.caption.75}}
\newlabel{fig:minipage1}{{2.2}{13}{Main Layout\relax }{figure.caption.75}{}}
\@writefile{lof}{\contentsline {figure}{\numberline {2.3}{\ignorespaces Dashboard\relax }}{13}{figure.caption.75}}
\newlabel{fig:minipage2}{{2.3}{13}{Dashboard\relax }{figure.caption.75}{}}
\@writefile{lol}{\contentsline {lstlisting}{\numberline {2.3}"Sefarad widget template"}{14}{lstlisting.77}}
\@writefile{toc}{\contentsline {section}{\numberline {2.4}MongoDB: a NoSQL Database}{15}{section.116}}
\newlabel{sec:mongodb}{{2.4}{15}{MongoDB: a NoSQL Database}{section.116}{}}
\@writefile{lof}{\contentsline {figure}{\numberline {2.4}{\ignorespaces MongoDB data model}}{15}{figure.caption.120}}
\newlabel{fig:mongodbdocument}{{2.4}{15}{MongoDB data model}{figure.caption.120}{}}
\citation{geoserverbeginners}
\@writefile{lof}{\contentsline {figure}{\numberline {2.5}{\ignorespaces MongoDB collection}}{16}{figure.caption.123}}
\newlabel{fig:mongodbcollection}{{2.5}{16}{MongoDB collection}{figure.caption.123}{}}
\@writefile{toc}{\contentsline {section}{\numberline {2.5}GeoServer}{16}{section.127}}
\newlabel{sec:geoserver}{{2.5}{16}{GeoServer}{section.127}{}}
\@writefile{lof}{\contentsline {figure}{\numberline {2.6}{\ignorespaces Geoserver administration UI\relax }}{17}{figure.caption.133}}
\newlabel{fig:geoserverui}{{2.6}{17}{Geoserver administration UI\relax }{figure.caption.133}{}}
\citation{openlayerscookbook}
\citation{openlayersstarter}
\@writefile{toc}{\contentsline {section}{\numberline {2.6}Fuseki: RDF over HTTP server}{18}{section.134}}
\newlabel{sec:fuseki}{{2.6}{18}{Fuseki: RDF over HTTP server}{section.134}{}}
\@writefile{toc}{\contentsline {section}{\numberline {2.7}OpenLayers}{18}{section.136}}
\newlabel{sec:openlayers}{{2.7}{18}{OpenLayers}{section.136}{}}
\citation{automatewithgrunt}
\@writefile{lof}{\contentsline {figure}{\numberline {2.7}{\ignorespaces OpenLayers map example with multiple layers\relax }}{19}{figure.caption.138}}
\newlabel{fig:openlayersexample}{{2.7}{19}{OpenLayers map example with multiple layers\relax }{figure.caption.138}{}}
\@writefile{toc}{\contentsline {section}{\numberline {2.8}Grunt: The JavaScript Task Runner}{19}{section.140}}
\newlabel{sec:gruntjs}{{2.8}{19}{Grunt: The JavaScript Task Runner}{section.140}{}}
\@setckpt{2-enablingtechnologies}{
\setcounter{page}{21}
\setcounter{equation}{0}
\setcounter{enumi}{4}
\setcounter{enumii}{0}
\setcounter{enumiii}{0}
\setcounter{enumiv}{0}
\setcounter{footnote}{35}
\setcounter{mpfootnote}{0}
\setcounter{part}{0}
\setcounter{chapter}{2}
\setcounter{section}{8}
\setcounter{subsection}{0}
\setcounter{subsubsection}{0}
\setcounter{paragraph}{0}
\setcounter{subparagraph}{0}
\setcounter{figure}{7}
\setcounter{table}{0}
\setcounter{parentequation}{0}
\setcounter{cor}{0}
\setcounter{thm}{0}
\setcounter{LT@tables}{0}
\setcounter{LT@chunks}{0}
\setcounter{ContinuedFloat}{0}
\setcounter{KVtest}{0}
\setcounter{subfigure}{0}
\setcounter{subfigure@save}{0}
\setcounter{lofdepth}{1}
\setcounter{subtable}{0}
\setcounter{subtable@save}{0}
\setcounter{lotdepth}{1}
\setcounter{lstnumber}{39}
\setcounter{Item}{8}
\setcounter{Hfootnote}{40}
\setcounter{bookmark@seq@number}{19}
\setcounter{lstlisting}{3}
\setcounter{section@level}{0}
}
