\relax 
\providecommand\hyper@newdestlabel[2]{}
\@writefile{toc}{\contentsline {chapter}{\numberline {3}Requirement Analysis}{21}{chapter.144}}
\@writefile{lof}{\addvspace {10\p@ }}
\@writefile{lot}{\addvspace {10\p@ }}
\newlabel{chap:requirements}{{3}{21}{Requirement Analysis}{chapter.144}{}}
\@writefile{toc}{\contentsline {section}{\numberline {3.1}Overview}{23}{section.145}}
\@writefile{toc}{\contentsline {section}{\numberline {3.2}Actors dictionary}{23}{section.146}}
\@writefile{lot}{\contentsline {table}{\numberline {3.1}{\ignorespaces Actors list\relax }}{23}{table.caption.147}}
\newlabel{tab:actores}{{3.1}{23}{Actors list\relax }{table.caption.147}{}}
\@writefile{toc}{\contentsline {section}{\numberline {3.3}Use cases}{24}{section.148}}
\@writefile{lof}{\contentsline {figure}{\numberline {3.1}{\ignorespaces Use cases UML diagram\relax }}{24}{figure.caption.149}}
\newlabel{fig:ucdiagram}{{3.1}{24}{Use cases UML diagram\relax }{figure.caption.149}{}}
\@writefile{toc}{\contentsline {subsection}{\numberline {3.3.1}Portal users use cases}{25}{subsection.150}}
\@writefile{toc}{\contentsline {subsubsection}{\numberline {3.3.1.1}Edit a SPARQL query}{26}{subsubsection.151}}
\newlabel{subsec:editsparql}{{3.3.1.1}{26}{Edit a SPARQL query}{subsubsection.151}{}}
\@writefile{lot}{\contentsline {table}{\numberline {3.2}{\ignorespaces Edit a SPARQL query\relax }}{26}{table.caption.152}}
\@writefile{toc}{\contentsline {subsubsection}{\numberline {3.3.1.2}Run a SPARQL query}{27}{subsubsection.153}}
\newlabel{subsec:runsparql}{{3.3.1.2}{27}{Run a SPARQL query}{subsubsection.153}{}}
\@writefile{lot}{\contentsline {table}{\numberline {3.3}{\ignorespaces Run a SPARQL query\relax }}{27}{table.caption.154}}
\@writefile{toc}{\contentsline {subsubsection}{\numberline {3.3.1.3}Visual display of the information}{28}{subsubsection.155}}
\newlabel{subsec:visualdisplay}{{3.3.1.3}{28}{Visual display of the information}{subsubsection.155}{}}
\@writefile{lot}{\contentsline {table}{\numberline {3.4}{\ignorespaces Visual display of the information\relax }}{28}{table.caption.156}}
\@writefile{toc}{\contentsline {subsubsection}{\numberline {3.3.1.4}Keyword search}{29}{subsubsection.157}}
\newlabel{subsec:keywordsearchuc}{{3.3.1.4}{29}{Keyword search}{subsubsection.157}{}}
\@writefile{lot}{\contentsline {table}{\numberline {3.5}{\ignorespaces Keyword search\relax }}{29}{table.caption.158}}
\@writefile{toc}{\contentsline {subsubsection}{\numberline {3.3.1.5}Faceted search}{30}{subsubsection.159}}
\newlabel{subsec:facetedsearchuc}{{3.3.1.5}{30}{Faceted search}{subsubsection.159}{}}
\@writefile{lot}{\contentsline {table}{\numberline {3.6}{\ignorespaces Faceted search\relax }}{30}{table.caption.160}}
\@writefile{toc}{\contentsline {subsubsection}{\numberline {3.3.1.6}Log-in/Log-out}{31}{subsubsection.161}}
\newlabel{subsec:loginout}{{3.3.1.6}{31}{Log-in/Log-out}{subsubsection.161}{}}
\@writefile{lot}{\contentsline {table}{\numberline {3.7}{\ignorespaces Log-in/Log-out\relax }}{31}{table.caption.162}}
\@writefile{toc}{\contentsline {subsubsection}{\numberline {3.3.1.7}Customize Sefarad}{32}{subsubsection.163}}
\newlabel{subsec:customize}{{3.3.1.7}{32}{Customize Sefarad}{subsubsection.163}{}}
\@writefile{lot}{\contentsline {table}{\numberline {3.8}{\ignorespaces Customize Sefarad\relax }}{32}{table.caption.164}}
\@writefile{toc}{\contentsline {subsubsection}{\numberline {3.3.1.8}Save own configuration}{33}{subsubsection.165}}
\newlabel{subsec:saveconfiguration}{{3.3.1.8}{33}{Save own configuration}{subsubsection.165}{}}
\@writefile{lot}{\contentsline {table}{\numberline {3.9}{\ignorespaces Save own configuration\relax }}{33}{table.caption.166}}
\@writefile{toc}{\contentsline {subsubsection}{\numberline {3.3.1.9}Reset own configuration}{34}{subsubsection.167}}
\newlabel{subsec:resetconfiguration}{{3.3.1.9}{34}{Reset own configuration}{subsubsection.167}{}}
\@writefile{lot}{\contentsline {table}{\numberline {3.10}{\ignorespaces Reset own configuration\relax }}{34}{table.caption.168}}
\@writefile{toc}{\contentsline {subsection}{\numberline {3.3.2}Admin use cases}{35}{subsection.169}}
\@writefile{toc}{\contentsline {subsubsection}{\numberline {3.3.2.1}Security and users management}{35}{subsubsection.170}}
\newlabel{subsec:usersmanagement}{{3.3.2.1}{35}{Security and users management}{subsubsection.170}{}}
\@writefile{lot}{\contentsline {table}{\numberline {3.11}{\ignorespaces Security and users management\relax }}{35}{table.caption.171}}
\@writefile{toc}{\contentsline {subsubsection}{\numberline {3.3.2.2}Local datasets management}{36}{subsubsection.172}}
\newlabel{subsec:localdatabasemanagement}{{3.3.2.2}{36}{Local datasets management}{subsubsection.172}{}}
\@writefile{lot}{\contentsline {table}{\numberline {3.12}{\ignorespaces Local datasets management\relax }}{36}{table.caption.173}}
\@writefile{toc}{\contentsline {subsection}{\numberline {3.3.3}Conclusions}{36}{subsection.174}}
\@setckpt{3-requisites}{
\setcounter{page}{37}
\setcounter{equation}{0}
\setcounter{enumi}{4}
\setcounter{enumii}{0}
\setcounter{enumiii}{0}
\setcounter{enumiv}{0}
\setcounter{footnote}{0}
\setcounter{mpfootnote}{0}
\setcounter{part}{0}
\setcounter{chapter}{3}
\setcounter{section}{3}
\setcounter{subsection}{3}
\setcounter{subsubsection}{0}
\setcounter{paragraph}{0}
\setcounter{subparagraph}{0}
\setcounter{figure}{1}
\setcounter{table}{12}
\setcounter{parentequation}{0}
\setcounter{cor}{0}
\setcounter{thm}{0}
\setcounter{LT@tables}{0}
\setcounter{LT@chunks}{0}
\setcounter{ContinuedFloat}{0}
\setcounter{KVtest}{0}
\setcounter{subfigure}{0}
\setcounter{subfigure@save}{0}
\setcounter{lofdepth}{1}
\setcounter{subtable}{0}
\setcounter{subtable@save}{0}
\setcounter{lotdepth}{1}
\setcounter{lstnumber}{39}
\setcounter{Item}{8}
\setcounter{Hfootnote}{40}
\setcounter{bookmark@seq@number}{37}
\setcounter{lstlisting}{0}
\setcounter{section@level}{0}
}
