\relax 
\providecommand\hyper@newdestlabel[2]{}
\@writefile{toc}{\contentsline {chapter}{\numberline {4}Architecture}{37}{chapter.175}}
\@writefile{lof}{\addvspace {10\p@ }}
\@writefile{lot}{\addvspace {10\p@ }}
\newlabel{chap:architecture}{{4}{37}{Architecture}{chapter.175}{}}
\@writefile{toc}{\contentsline {section}{\numberline {4.1}Introduction}{39}{section.176}}
\@writefile{toc}{\contentsline {section}{\numberline {4.2}Architecture}{39}{section.177}}
\@writefile{lof}{\contentsline {figure}{\numberline {4.1}{\ignorespaces General Architecture\relax }}{39}{figure.caption.178}}
\newlabel{fig:ArchitectureGeneral}{{4.1}{39}{General Architecture\relax }{figure.caption.178}{}}
\@writefile{toc}{\contentsline {section}{\numberline {4.3}SPARQL Engine}{41}{section.179}}
\newlabel{sec:sparqlengine}{{4.3}{41}{SPARQL Engine}{section.179}{}}
\@writefile{toc}{\contentsline {subsection}{\numberline {4.3.1}SPARQL Editor}{41}{subsection.180}}
\newlabel{subsec:sparqleditor}{{4.3.1}{41}{SPARQL Editor}{subsection.180}{}}
\@writefile{lof}{\contentsline {figure}{\numberline {4.2}{\ignorespaces SPARQL Editor\relax }}{42}{figure.caption.186}}
\newlabel{fig:sparqleditor}{{4.2}{42}{SPARQL Editor\relax }{figure.caption.186}{}}
\@writefile{toc}{\contentsline {subsection}{\numberline {4.3.2}SPARQL queries executor}{43}{subsection.187}}
\newlabel{subsec:queriesexecutor}{{4.3.2}{43}{SPARQL queries executor}{subsection.187}{}}
\@writefile{lof}{\contentsline {figure}{\numberline {4.3}{\ignorespaces SPARQL query sequence diagram\relax }}{43}{figure.caption.188}}
\newlabel{fig:sparqlengine}{{4.3}{43}{SPARQL query sequence diagram\relax }{figure.caption.188}{}}
\@writefile{toc}{\contentsline {section}{\numberline {4.4}Geo Proxy}{43}{section.189}}
\newlabel{sec:geoproxy}{{4.4}{43}{Geo Proxy}{section.189}{}}
\newlabel{lst:sparqltogeojson}{{4.1}{44}{SPARQL to GeoJSON conversion}{lstlisting.190}{}}
\@writefile{lol}{\contentsline {lstlisting}{\numberline {4.1}SPARQL to GeoJSON conversion}{44}{lstlisting.190}}
\citation{geoserverbeginners}
\@writefile{toc}{\contentsline {section}{\numberline {4.5}Local Server}{46}{section.253}}
\newlabel{sec:mapserver}{{4.5}{46}{Local Server}{section.253}{}}
\@writefile{lof}{\contentsline {figure}{\numberline {4.4}{\ignorespaces Fuseki/Virtuoso and GeoServer\relax }}{46}{figure.caption.254}}
\newlabel{fig:fusekigeoserver}{{4.4}{46}{Fuseki/Virtuoso and GeoServer\relax }{figure.caption.254}{}}
\@writefile{toc}{\contentsline {subsection}{\numberline {4.5.1}Fuseki and Virtuoso}{46}{subsection.255}}
\newlabel{subsec:fuseki}{{4.5.1}{46}{Fuseki and Virtuoso}{subsection.255}{}}
\@writefile{toc}{\contentsline {subsection}{\numberline {4.5.2}Geo Server}{46}{subsection.256}}
\newlabel{subsec:geoserver}{{4.5.2}{46}{Geo Server}{subsection.256}{}}
\@writefile{toc}{\contentsline {section}{\numberline {4.6}Search and filtering module}{47}{section.258}}
\newlabel{sec:searchandfilteringmodule}{{4.6}{47}{Search and filtering module}{section.258}{}}
\@writefile{toc}{\contentsline {subsection}{\numberline {4.6.1}Keyword search}{48}{subsection.259}}
\newlabel{subsec:keyword}{{4.6.1}{48}{Keyword search}{subsection.259}{}}
\@writefile{lof}{\contentsline {figure}{\numberline {4.5}{\ignorespaces Keyword search example\relax }}{48}{figure.caption.260}}
\newlabel{fig:keywordarch}{{4.5}{48}{Keyword search example\relax }{figure.caption.260}{}}
\@writefile{lof}{\contentsline {figure}{\numberline {4.6}{\ignorespaces Faceted search example\relax }}{48}{figure.caption.261}}
\newlabel{fig:facetedarch}{{4.6}{48}{Faceted search example\relax }{figure.caption.261}{}}
\@writefile{toc}{\contentsline {subsection}{\numberline {4.6.2}Faceted search}{49}{subsection.262}}
\newlabel{subsec:facetedsearch}{{4.6.2}{49}{Faceted search}{subsection.262}{}}
\@writefile{toc}{\contentsline {subsection}{\numberline {4.6.3}Geo filtering}{49}{subsection.263}}
\newlabel{subsec:geofiltering}{{4.6.3}{49}{Geo filtering}{subsection.263}{}}
\@writefile{toc}{\contentsline {section}{\numberline {4.7}Model View View-Model}{50}{section.266}}
\newlabel{sec:mvvm}{{4.7}{50}{Model View View-Model}{section.266}{}}
\@writefile{lof}{\contentsline {figure}{\numberline {4.7}{\ignorespaces Model View ViewModel}}{50}{figure.caption.268}}
\newlabel{fig:lodcloud}{{4.7}{50}{Model View ViewModel}{figure.caption.268}{}}
\newlabel{lst:binding}{{4.2}{51}{Active widgets binding}{lstlisting.271}{}}
\@writefile{lol}{\contentsline {lstlisting}{\numberline {4.2}Active widgets binding}{51}{lstlisting.271}}
\@writefile{toc}{\contentsline {subsection}{\numberline {4.7.1}Data Model}{51}{subsection.276}}
\newlabel{subsec:datamodel}{{4.7.1}{51}{Data Model}{subsection.276}{}}
\@writefile{toc}{\contentsline {subsection}{\numberline {4.7.2}Widgets layout}{52}{subsection.277}}
\newlabel{subsec:widgetslayout}{{4.7.2}{52}{Widgets layout}{subsection.277}{}}
\@writefile{toc}{\contentsline {subsubsection}{\numberline {4.7.2.1}Linear layout}{53}{subsubsection.278}}
\newlabel{subsubsec:linear}{{4.7.2.1}{53}{Linear layout}{subsubsection.278}{}}
\@writefile{lof}{\contentsline {figure}{\numberline {4.8}{\ignorespaces Linear Layout\relax }}{53}{figure.caption.279}}
\newlabel{fig:accordionlayout}{{4.8}{53}{Linear Layout\relax }{figure.caption.279}{}}
\@writefile{toc}{\contentsline {subsubsection}{\numberline {4.7.2.2}Accordion layout}{53}{subsubsection.280}}
\newlabel{subsubsec:accordion}{{4.7.2.2}{53}{Accordion layout}{subsubsection.280}{}}
\citation{phpmongodb}
\@writefile{lof}{\contentsline {figure}{\numberline {4.9}{\ignorespaces Accordion Layout\relax }}{54}{figure.caption.281}}
\newlabel{fig:accordionlayout}{{4.9}{54}{Accordion Layout\relax }{figure.caption.281}{}}
\@writefile{toc}{\contentsline {section}{\numberline {4.8}User management module}{54}{section.282}}
\newlabel{sec:usermanagement}{{4.8}{54}{User management module}{section.282}{}}
\@writefile{toc}{\contentsline {subsection}{\numberline {4.8.1}Security: authentication and authorization}{54}{subsection.284}}
\newlabel{subsec:security}{{4.8.1}{54}{Security: authentication and authorization}{subsection.284}{}}
\@writefile{toc}{\contentsline {subsubsection}{\numberline {4.8.1.1}MondoDB connection}{55}{subsubsection.285}}
\newlabel{subsubsec:dbconnection}{{4.8.1.1}{55}{MondoDB connection}{subsubsection.285}{}}
\newlabel{lst:dbconnection}{{4.3}{55}{dbconnection.php}{lstlisting.286}{}}
\@writefile{lol}{\contentsline {lstlisting}{\numberline {4.3}dbconnection.php}{55}{lstlisting.286}}
\@writefile{toc}{\contentsline {subsubsection}{\numberline {4.8.1.2}Session Manager}{56}{subsubsection.321}}
\newlabel{subsubsec:sessionmanager}{{4.8.1.2}{56}{Session Manager}{subsubsection.321}{}}
\newlabel{lst:session}{{4.4}{57}{session.php}{lstlisting.322}{}}
\@writefile{lol}{\contentsline {lstlisting}{\numberline {4.4}session.php}{57}{lstlisting.322}}
\@writefile{toc}{\contentsline {subsubsection}{\numberline {4.8.1.3}User class}{59}{subsubsection.388}}
\newlabel{subsubsec:userclass}{{4.8.1.3}{59}{User class}{subsubsection.388}{}}
\newlabel{lst:userphp}{{4.5}{59}{user.php}{lstlisting.389}{}}
\@writefile{lol}{\contentsline {lstlisting}{\numberline {4.5}user.php}{59}{lstlisting.389}}
\@writefile{toc}{\contentsline {subsection}{\numberline {4.8.2}MongoDB: settings and preferences}{61}{subsection.439}}
\newlabel{subsec:settingssandprefs}{{4.8.2}{61}{MongoDB: settings and preferences}{subsection.439}{}}
\@writefile{toc}{\contentsline {subsubsection}{\numberline {4.8.2.1}Loading configuration}{62}{subsubsection.440}}
\newlabel{subsubsec:loadconf}{{4.8.2.1}{62}{Loading configuration}{subsubsection.440}{}}
\newlabel{lst:load}{{4.6}{62}{mongo\_load.php}{lstlisting.441}{}}
\@writefile{lol}{\contentsline {lstlisting}{\numberline {4.6}mongo\_load.php}{62}{lstlisting.441}}
\@writefile{toc}{\contentsline {subsubsection}{\numberline {4.8.2.2}Saving configuration}{63}{subsubsection.472}}
\newlabel{subsubsec:saveconf}{{4.8.2.2}{63}{Saving configuration}{subsubsection.472}{}}
\newlabel{lst:save}{{4.7}{63}{mongo\_save.php}{lstlisting.473}{}}
\@writefile{lol}{\contentsline {lstlisting}{\numberline {4.7}mongo\_save.php}{63}{lstlisting.473}}
\@writefile{toc}{\contentsline {subsubsection}{\numberline {4.8.2.3}Deleting configuration}{64}{subsubsection.506}}
\newlabel{subsubsec:deleteconf}{{4.8.2.3}{64}{Deleting configuration}{subsubsection.506}{}}
\newlabel{lst:delete}{{4.8}{64}{mongo\_delete.php}{lstlisting.507}{}}
\@writefile{lol}{\contentsline {lstlisting}{\numberline {4.8}mongo\_delete.php}{64}{lstlisting.507}}
\@writefile{toc}{\contentsline {section}{\numberline {4.9}Setup module}{64}{section.531}}
\newlabel{sec:setup}{{4.9}{64}{Setup module}{section.531}{}}
\@writefile{toc}{\contentsline {subsection}{\numberline {4.9.1}Custom installer}{65}{subsection.532}}
\newlabel{subsec:custominstaller}{{4.9.1}{65}{Custom installer}{subsection.532}{}}
\@writefile{lof}{\contentsline {figure}{\numberline {4.10}{\ignorespaces Installation example (1)\relax }}{65}{figure.caption.533}}
\newlabel{fig:installexample1}{{4.10}{65}{Installation example (1)\relax }{figure.caption.533}{}}
\@writefile{lof}{\contentsline {figure}{\numberline {4.11}{\ignorespaces Installation example (2)\relax }}{65}{figure.caption.534}}
\newlabel{fig:installexample2}{{4.11}{65}{Installation example (2)\relax }{figure.caption.534}{}}
\@writefile{lof}{\contentsline {figure}{\numberline {4.12}{\ignorespaces Custom installer\relax }}{66}{figure.caption.535}}
\newlabel{fig:custominstall}{{4.12}{66}{Custom installer\relax }{figure.caption.535}{}}
\@writefile{toc}{\contentsline {subsection}{\numberline {4.9.2}Automation: Grunt.JS Task Runner}{66}{subsection.536}}
\newlabel{subsec:automation}{{4.9.2}{66}{Automation: Grunt.JS Task Runner}{subsection.536}{}}
\newlabel{lst:package}{{4.9}{67}{package.json}{lstlisting.537}{}}
\@writefile{lol}{\contentsline {lstlisting}{\numberline {4.9}package.json}{67}{lstlisting.537}}
\newlabel{lst:gruntfile}{{4.10}{68}{Gruntfile.js}{lstlisting.569}{}}
\@writefile{lol}{\contentsline {lstlisting}{\numberline {4.10}Gruntfile.js}{68}{lstlisting.569}}
\@setckpt{4-architecture}{
\setcounter{page}{70}
\setcounter{equation}{0}
\setcounter{enumi}{4}
\setcounter{enumii}{0}
\setcounter{enumiii}{0}
\setcounter{enumiv}{0}
\setcounter{footnote}{12}
\setcounter{mpfootnote}{0}
\setcounter{part}{0}
\setcounter{chapter}{4}
\setcounter{section}{9}
\setcounter{subsection}{2}
\setcounter{subsubsection}{0}
\setcounter{paragraph}{0}
\setcounter{subparagraph}{0}
\setcounter{figure}{12}
\setcounter{table}{0}
\setcounter{parentequation}{0}
\setcounter{cor}{0}
\setcounter{thm}{0}
\setcounter{LT@tables}{0}
\setcounter{LT@chunks}{0}
\setcounter{ContinuedFloat}{0}
\setcounter{KVtest}{0}
\setcounter{subfigure}{0}
\setcounter{subfigure@save}{0}
\setcounter{lofdepth}{1}
\setcounter{subtable}{0}
\setcounter{subtable@save}{0}
\setcounter{lotdepth}{1}
\setcounter{lstnumber}{55}
\setcounter{Item}{8}
\setcounter{Hfootnote}{52}
\setcounter{bookmark@seq@number}{68}
\setcounter{lstlisting}{10}
\setcounter{section@level}{0}
}
