\relax 
\providecommand\hyper@newdestlabel[2]{}
\@writefile{toc}{\contentsline {chapter}{\numberline {4}Architecture}{45}{chapter.137}}
\@writefile{lof}{\addvspace {10\p@ }}
\@writefile{lot}{\addvspace {10\p@ }}
\newlabel{chap:architecture}{{4}{45}{Architecture}{chapter.137}{}}
\citation{fernandez2011semantic}
\@writefile{toc}{\contentsline {section}{\numberline {4.1}Introduction}{47}{section.138}}
\citation{fernandez2011semantic}
\@writefile{lof}{\contentsline {figure}{\numberline {4.1}{\ignorespaces General Architecture\relax }}{48}{figure.caption.139}}
\newlabel{fig:ArchitectureGeneral}{{4.1}{48}{General Architecture\relax }{figure.caption.139}{}}
\@writefile{toc}{\contentsline {section}{\numberline {4.2}Automated discovery}{48}{section.140}}
\newlabel{sec:scrappy}{{4.2}{48}{Automated discovery}{section.140}{}}
\@writefile{lof}{\contentsline {figure}{\numberline {4.2}{\ignorespaces Scrappy sequence diagram\relax }}{49}{figure.caption.142}}
\newlabel{fig:scrappysequence}{{4.2}{49}{Scrappy sequence diagram\relax }{figure.caption.142}{}}
\@writefile{lot}{\contentsline {table}{\numberline {4.1}{\ignorespaces Runnable components in OMR\relax }}{50}{table.caption.144}}
\newlabel{tab:omrcomrun}{{4.1}{50}{Runnable components in OMR\relax }{table.caption.144}{}}
\@writefile{toc}{\contentsline {section}{\numberline {4.3}Semantic repository}{50}{section.147}}
\newlabel{sec:omrsesame}{{4.3}{50}{Semantic repository}{section.147}{}}
\citation{Tilo12}
\@writefile{toc}{\contentsline {section}{\numberline {4.4}Ranking module}{51}{section.148}}
\newlabel{sec:rankingmodule}{{4.4}{51}{Ranking module}{section.148}{}}
\@writefile{lof}{\contentsline {figure}{\numberline {4.3}{\ignorespaces Sequence diagram for ranking index generation\relax }}{52}{figure.caption.149}}
\newlabel{fig:rankingsequence}{{4.3}{52}{Sequence diagram for ranking index generation\relax }{figure.caption.149}{}}
\@writefile{toc}{\contentsline {section}{\numberline {4.5}OMR Admin Interface}{52}{section.150}}
\newlabel{sec:omradmin}{{4.5}{52}{OMR Admin Interface}{section.150}{}}
\@writefile{lof}{\contentsline {figure}{\numberline {4.4}{\ignorespaces Simile Exhibit example interface\relax }}{53}{figure.caption.152}}
\newlabel{fig:generatingblocks}{{4.4}{53}{Simile Exhibit example interface\relax }{figure.caption.152}{}}
\@writefile{lof}{\contentsline {figure}{\numberline {4.5}{\ignorespaces OMR Admin Interface architecture\relax }}{53}{figure.caption.154}}
\newlabel{fig:admininterface}{{4.5}{53}{OMR Admin Interface architecture\relax }{figure.caption.154}{}}
\@writefile{toc}{\contentsline {subsection}{\numberline {4.5.1}Main component}{54}{subsection.155}}
\@writefile{lof}{\contentsline {figure}{\numberline {4.6}{\ignorespaces OMR Admin Interface\relax }}{54}{figure.caption.158}}
\newlabel{fig:admininterfacemain}{{4.6}{54}{OMR Admin Interface\relax }{figure.caption.158}{}}
\@writefile{toc}{\contentsline {subsection}{\numberline {4.5.2}Functions library}{54}{subsection.159}}
\newlabel{subsec:functionslibrary}{{4.5.2}{54}{Functions library}{subsection.159}{}}
\@writefile{toc}{\contentsline {subsubsection}{\numberline {4.5.2.1}Facet boxes}{55}{subsubsection.160}}
\@writefile{lol}{\contentsline {lstlisting}{\numberline {4.1}"Creating facet box"}{55}{lstlisting.161}}
\@writefile{lof}{\contentsline {figure}{\numberline {4.7}{\ignorespaces Generating Facet Boxes\relax }}{55}{figure.caption.163}}
\newlabel{fig:generatingblocks}{{4.7}{55}{Generating Facet Boxes\relax }{figure.caption.163}{}}
\@writefile{toc}{\contentsline {subsubsection}{\numberline {4.5.2.2}Result lists}{56}{subsubsection.164}}
\@writefile{lol}{\contentsline {lstlisting}{\numberline {4.2}"Creating result container"}{56}{lstlisting.165}}
\@writefile{toc}{\contentsline {subsubsection}{\numberline {4.5.2.3}Widget or service}{56}{subsubsection.167}}
\@writefile{lol}{\contentsline {lstlisting}{\numberline {4.3}"Creating information view"}{56}{lstlisting.168}}
\@writefile{toc}{\contentsline {subsubsection}{\numberline {4.5.2.4}Generate charts}{56}{subsubsection.172}}
\@writefile{lol}{\contentsline {lstlisting}{\numberline {4.4}"Generating pie charts"}{56}{lstlisting.173}}
\@writefile{lof}{\contentsline {figure}{\numberline {4.8}{\ignorespaces Pie chart\relax }}{57}{figure.caption.181}}
\newlabel{fig:piechart}{{4.8}{57}{Pie chart\relax }{figure.caption.181}{}}
\@writefile{toc}{\contentsline {subsubsection}{\numberline {4.5.2.5}Admin authentication}{57}{subsubsection.183}}
\@writefile{toc}{\contentsline {subsubsection}{\numberline {4.5.2.6}Cache and performance}{57}{subsubsection.185}}
\newlabel{subsubsec:cacheperfomance}{{4.5.2.6}{57}{Cache and performance}{subsubsection.185}{}}
\@writefile{lof}{\contentsline {figure}{\numberline {4.9}{\ignorespaces Sequence diagram for chart generation\relax }}{58}{figure.caption.182}}
\newlabel{fig:chartsequence}{{4.9}{58}{Sequence diagram for chart generation\relax }{figure.caption.182}{}}
\@writefile{lot}{\contentsline {table}{\numberline {4.2}{\ignorespaces Execution query time comparison\relax }}{58}{table.caption.186}}
\newlabel{tab:timecomp}{{4.2}{58}{Execution query time comparison\relax }{table.caption.186}{}}
\@writefile{lof}{\contentsline {figure}{\numberline {4.10}{\ignorespaces Sequence diagram if query is not in cache\relax }}{59}{figure.caption.187}}
\newlabel{fig:cachesequence_a}{{4.10}{59}{Sequence diagram if query is not in cache\relax }{figure.caption.187}{}}
\@writefile{lof}{\contentsline {figure}{\numberline {4.11}{\ignorespaces Sequence diagram if query cached\relax }}{59}{figure.caption.188}}
\newlabel{fig:cachesequence_b}{{4.11}{59}{Sequence diagram if query cached\relax }{figure.caption.188}{}}
\newlabel{lst:cachels}{{4.5}{59}{Cache file list example}{lstlisting.189}{}}
\@writefile{lol}{\contentsline {lstlisting}{\numberline {4.5}Cache file list example}{59}{lstlisting.189}}
\newlabel{lst:cachecat}{{4.6}{59}{Cache file out example}{lstlisting.193}{}}
\@writefile{lol}{\contentsline {lstlisting}{\numberline {4.6}Cache file out example}{59}{lstlisting.193}}
\@writefile{toc}{\contentsline {subsubsection}{\numberline {4.5.2.7}Repository wrapper}{60}{subsubsection.212}}
\@writefile{toc}{\contentsline {subsubsection}{\numberline {4.5.2.8}Sparql Library}{60}{subsubsection.214}}
\newlabel{subsubsec:sparqllibrary}{{4.5.2.8}{60}{Sparql Library}{subsubsection.214}{}}
\newlabel{sparqllibsample}{{4.7}{60}{Sparqllib usage example}{lstlisting.216}{}}
\@writefile{lol}{\contentsline {lstlisting}{\numberline {4.7}Sparqllib usage example}{60}{lstlisting.216}}
\@writefile{lot}{\contentsline {table}{\numberline {4.3}{\ignorespaces Sparqllib output example\relax }}{61}{table.caption.237}}
\newlabel{tab:sparqllibsample}{{4.3}{61}{Sparqllib output example\relax }{table.caption.237}{}}
\@writefile{toc}{\contentsline {subsubsection}{\numberline {4.5.2.9}Validating resource}{62}{subsubsection.238}}
\newlabel{subsubsection:validationresourcearch}{{4.5.2.9}{62}{Validating resource}{subsubsection.238}{}}
\@writefile{lof}{\contentsline {figure}{\numberline {4.12}{\ignorespaces OMR admin top menu\relax }}{62}{figure.caption.239}}
\newlabel{fig:admintopmenu}{{4.12}{62}{OMR admin top menu\relax }{figure.caption.239}{}}
\@writefile{lof}{\contentsline {figure}{\numberline {4.13}{\ignorespaces OMR admin validate and reject buttons\relax }}{62}{figure.caption.240}}
\newlabel{fig:validatebutton}{{4.13}{62}{OMR admin validate and reject buttons\relax }{figure.caption.240}{}}
\@writefile{lof}{\contentsline {figure}{\numberline {4.14}{\ignorespaces Sequence diagram for validating RDF resource\relax }}{63}{figure.caption.241}}
\newlabel{fig:validatesequence}{{4.14}{63}{Sequence diagram for validating RDF resource\relax }{figure.caption.241}{}}
\@writefile{toc}{\contentsline {subsubsection}{\numberline {4.5.2.10}Rejecting resource}{63}{subsubsection.242}}
\@writefile{lof}{\contentsline {figure}{\numberline {4.15}{\ignorespaces OMR admin search box\relax }}{63}{figure.caption.243}}
\newlabel{fig:searchboxadmin}{{4.15}{63}{OMR admin search box\relax }{figure.caption.243}{}}
\@writefile{lof}{\contentsline {figure}{\numberline {4.16}{\ignorespaces Sequence diagram for rejecting RDF resource\relax }}{64}{figure.caption.244}}
\newlabel{fig:rejectsequence}{{4.16}{64}{Sequence diagram for rejecting RDF resource\relax }{figure.caption.244}{}}
\@writefile{toc}{\contentsline {subsubsection}{\numberline {4.5.2.11}Wadl generation}{64}{subsubsection.245}}
\newlabel{lst:wadlsparql}{{4.8}{65}{Retrieving information for WADL with SPARQL}{lstlisting.248}{}}
\@writefile{lol}{\contentsline {lstlisting}{\numberline {4.8}Retrieving information for WADL with SPARQL}{65}{lstlisting.248}}
\newlabel{lst:wadlexample}{{4.9}{65}{WADL example}{lstlisting.257}{}}
\@writefile{lol}{\contentsline {lstlisting}{\numberline {4.9}WADL example}{65}{lstlisting.257}}
\@writefile{lof}{\contentsline {figure}{\numberline {4.17}{\ignorespaces Sequence diagram for WADL file generation\relax }}{66}{figure.caption.289}}
\newlabel{fig:wadlsequence}{{4.17}{66}{Sequence diagram for WADL file generation\relax }{figure.caption.289}{}}
\@writefile{toc}{\contentsline {subsubsection}{\numberline {4.5.2.12}LMF integration}{66}{subsubsection.290}}
\@writefile{toc}{\contentsline {section}{\numberline {4.6}OMR Client Browser}{67}{section.292}}
\newlabel{sec:omrclientbrowser}{{4.6}{67}{OMR Client Browser}{section.292}{}}
\@writefile{toc}{\contentsline {subsection}{\numberline {4.6.1}Back-end}{67}{subsection.296}}
\newlabel{subsec:omrclientback}{{4.6.1}{67}{Back-end}{subsection.296}{}}
\@writefile{lof}{\contentsline {figure}{\numberline {4.18}{\ignorespaces Scrappy sequence diagram\relax }}{68}{figure.caption.294}}
\newlabel{fig:clientsequence}{{4.18}{68}{Scrappy sequence diagram\relax }{figure.caption.294}{}}
\@writefile{lof}{\contentsline {figure}{\numberline {4.19}{\ignorespaces OMR client interface\relax }}{68}{figure.caption.295}}
\newlabel{fig:omrclient}{{4.19}{68}{OMR client interface\relax }{figure.caption.295}{}}
\newlabel{lst:semcore}{{4.10}{69}{Semantic core configuration for LMF using LD Path}{lstlisting.298}{}}
\@writefile{lol}{\contentsline {lstlisting}{\numberline {4.10}Semantic core configuration for LMF using LD Path}{69}{lstlisting.298}}
\@writefile{toc}{\contentsline {subsection}{\numberline {4.6.2}Front-end}{69}{subsection.313}}
\newlabel{subsec:omrclientfront}{{4.6.2}{69}{Front-end}{subsection.313}{}}
\@writefile{toc}{\contentsline {paragraph}{Search fields}{69}{subsection.313}}
\newlabel{lst:sparqlauto}{{4.11}{70}{SPARQL to retrieve all component types}{lstlisting.315}{}}
\@writefile{lol}{\contentsline {lstlisting}{\numberline {4.11}SPARQL to retrieve all component types}{70}{lstlisting.315}}
\@writefile{lof}{\contentsline {figure}{\numberline {4.20}{\ignorespaces Search fields in OMR client interface\relax }}{70}{figure.caption.320}}
\newlabel{fig:searchfields}{{4.20}{70}{Search fields in OMR client interface\relax }{figure.caption.320}{}}
\newlabel{lst:databinding}{{4.12}{70}{Data binding with knockout}{lstlisting.321}{}}
\@writefile{lol}{\contentsline {lstlisting}{\numberline {4.12}Data binding with knockout}{70}{lstlisting.321}}
\@writefile{toc}{\contentsline {paragraph}{Multilingual support}{71}{lstnumber.328}}
\@writefile{toc}{\contentsline {paragraph}{Personalization manual}{71}{lstnumber.328}}
\@writefile{toc}{\contentsline {section}{\numberline {4.7}Conclusions}{71}{section.330}}
\@setckpt{5-architecture}{
\setcounter{page}{72}
\setcounter{equation}{0}
\setcounter{enumi}{0}
\setcounter{enumii}{0}
\setcounter{enumiii}{0}
\setcounter{enumiv}{0}
\setcounter{footnote}{18}
\setcounter{mpfootnote}{0}
\setcounter{part}{0}
\setcounter{chapter}{4}
\setcounter{section}{7}
\setcounter{subsection}{0}
\setcounter{subsubsection}{0}
\setcounter{paragraph}{0}
\setcounter{subparagraph}{0}
\setcounter{figure}{20}
\setcounter{table}{3}
\setcounter{parentequation}{0}
\setcounter{cor}{0}
\setcounter{thm}{0}
\setcounter{ContinuedFloat}{0}
\setcounter{KVtest}{0}
\setcounter{subfigure}{0}
\setcounter{subfigure@save}{0}
\setcounter{lofdepth}{1}
\setcounter{subtable}{0}
\setcounter{subtable@save}{0}
\setcounter{lotdepth}{1}
\setcounter{lstnumber}{8}
\setcounter{Item}{0}
\setcounter{Hfootnote}{27}
\setcounter{bookmark@seq@number}{67}
\setcounter{lstlisting}{12}
\setcounter{section@level}{0}
}
