\relax 
\providecommand\hyper@newdestlabel[2]{}
\@writefile{toc}{\contentsline {chapter}{\numberline {5}Case Study}{71}{chapter.624}}
\@writefile{lof}{\addvspace {10\p@ }}
\@writefile{lot}{\addvspace {10\p@ }}
\newlabel{chap:casestudy}{{5}{71}{Case Study}{chapter.624}{}}
\@writefile{toc}{\contentsline {section}{\numberline {5.1}Introduction}{73}{section.625}}
\@writefile{toc}{\contentsline {section}{\numberline {5.2}European universities}{74}{section.629}}
\newlabel{sec:universities}{{5.2}{74}{European universities}{section.629}{}}
\@writefile{toc}{\contentsline {subsection}{\numberline {5.2.1}Query and retrieve the data: SPARQL}{74}{subsection.630}}
\newlabel{lst:universitiesquery}{{5.1}{74}{European universities SPARQL}{lstlisting.632}{}}
\@writefile{lol}{\contentsline {lstlisting}{\numberline {5.1}European universities SPARQL}{74}{lstlisting.632}}
\newlabel{lst:jsonresult}{{5.2}{75}{Universities results JSON example}{lstlisting.654}{}}
\@writefile{lol}{\contentsline {lstlisting}{\numberline {5.2}Universities results JSON example}{75}{lstlisting.654}}
\@writefile{toc}{\contentsline {subsection}{\numberline {5.2.2}Showing the data: results table}{76}{subsection.682}}
\@writefile{lof}{\contentsline {figure}{\numberline {5.1}{\ignorespaces Results Widget with universities\relax }}{76}{figure.caption.683}}
\newlabel{fig:universitiestable}{{5.1}{76}{Results Widget with universities\relax }{figure.caption.683}{}}
\@writefile{lof}{\contentsline {figure}{\numberline {5.2}{\ignorespaces American University of Rome DBpedia webpage\relax }}{77}{figure.caption.684}}
\newlabel{fig:universitiestable}{{5.2}{77}{American University of Rome DBpedia webpage\relax }{figure.caption.684}{}}
\@writefile{toc}{\contentsline {subsection}{\numberline {5.2.3}Geographic representation: Openlayers map}{77}{subsection.685}}
\@writefile{lof}{\contentsline {figure}{\numberline {5.3}{\ignorespaces Universities in Spain and Italy\relax }}{77}{figure.caption.686}}
\newlabel{fig:universitiesmap}{{5.3}{77}{Universities in Spain and Italy\relax }{figure.caption.686}{}}
\@writefile{toc}{\contentsline {subsection}{\numberline {5.2.4}Filtering technologies}{78}{subsection.687}}
\@writefile{lof}{\contentsline {figure}{\numberline {5.4}{\ignorespaces Keyword search example\relax }}{78}{figure.caption.688}}
\newlabel{fig:universitieskeyword}{{5.4}{78}{Keyword search example\relax }{figure.caption.688}{}}
\@writefile{lof}{\contentsline {figure}{\numberline {5.5}{\ignorespaces Universities Demo Layout\relax }}{78}{figure.caption.689}}
\newlabel{fig:universitieslayout}{{5.5}{78}{Universities Demo Layout\relax }{figure.caption.689}{}}
\@writefile{toc}{\contentsline {section}{\numberline {5.3}Restaurants and Districts in Madrid}{79}{section.690}}
\newlabel{sec:restaurants}{{5.3}{79}{Restaurants and Districts in Madrid}{section.690}{}}
\@writefile{toc}{\contentsline {subsection}{\numberline {5.3.1}Download and process the information}{79}{subsection.693}}
\@writefile{lof}{\contentsline {figure}{\numberline {5.6}{\ignorespaces Processing restaurants data\relax }}{79}{figure.caption.696}}
\newlabel{fig:universitieslayout}{{5.6}{79}{Processing restaurants data\relax }{figure.caption.696}{}}
\@writefile{toc}{\contentsline {subsection}{\numberline {5.3.2}SPARQL and Fuseki}{80}{subsection.697}}
\newlabel{lst:restjsonresult}{{5.3}{80}{Restaurants results JSON example}{lstlisting.698}{}}
\@writefile{lol}{\contentsline {lstlisting}{\numberline {5.3}Restaurants results JSON example}{80}{lstlisting.698}}
\newlabel{lst:universitiesquery}{{5.4}{82}{European universities SPARQL}{lstlisting.764}{}}
\@writefile{lol}{\contentsline {lstlisting}{\numberline {5.4}European universities SPARQL}{82}{lstlisting.764}}
\@writefile{toc}{\contentsline {subsection}{\numberline {5.3.3}Faceted search}{83}{subsection.798}}
\@writefile{lof}{\contentsline {figure}{\numberline {5.7}{\ignorespaces Linear layout\relax }}{83}{figure.caption.799}}
\newlabel{fig:linearlayoutrestaurants}{{5.7}{83}{Linear layout\relax }{figure.caption.799}{}}
\@writefile{lof}{\contentsline {figure}{\numberline {5.8}{\ignorespaces Accordion layout\relax }}{83}{figure.caption.800}}
\newlabel{fig:accordionlayoutrestaurants}{{5.8}{83}{Accordion layout\relax }{figure.caption.800}{}}
\@writefile{toc}{\contentsline {subsection}{\numberline {5.3.4}Openlayers and GeoJSON}{84}{subsection.801}}
\newlabel{lst:restjsonresult}{{5.5}{84}{Restaurants results JSON example}{lstlisting.803}{}}
\@writefile{lol}{\contentsline {lstlisting}{\numberline {5.5}Restaurants results JSON example}{84}{lstlisting.803}}
\@writefile{toc}{\contentsline {section}{\numberline {5.4}Slovakian dataset}{85}{section.826}}
\newlabel{sec:slovakian}{{5.4}{85}{Slovakian dataset}{section.826}{}}
\@writefile{toc}{\contentsline {subsection}{\numberline {5.4.1}Protected sites dataset}{85}{subsection.829}}
\@writefile{lof}{\contentsline {figure}{\numberline {5.9}{\ignorespaces Protected sites tables and view\relax }}{86}{figure.caption.831}}
\newlabel{fig:slovakiascheme}{{5.9}{86}{Protected sites tables and view\relax }{figure.caption.831}{}}
\gdef \LT@i {\LT@entry 
    {1}{211.96927pt}\LT@entry 
    {1}{126.21101pt}\LT@entry 
    {1}{97.75826pt}}
\@writefile{lot}{\contentsline {table}{\numberline {5.1}{\ignorespaces Data INSPIRE designation}}{89}{table.833}}
\newlabel{tab:slovakiantable}{{5.1}{89}{Data INSPIRE designation}{table.833}{}}
\@writefile{toc}{\contentsline {subsection}{\numberline {5.4.2}SPARQL Query and results data}{90}{subsection.834}}
\newlabel{lst:slovakiaquery}{{5.6}{90}{Slovakian Demo SPARQL}{lstlisting.835}{}}
\@writefile{lol}{\contentsline {lstlisting}{\numberline {5.6}Slovakian Demo SPARQL}{90}{lstlisting.835}}
\newlabel{lst:slovakiajsonresult}{{5.7}{91}{Slovakia results JSON example}{lstlisting.861}{}}
\@writefile{lol}{\contentsline {lstlisting}{\numberline {5.7}Slovakia results JSON example}{91}{lstlisting.861}}
\@writefile{toc}{\contentsline {subsection}{\numberline {5.4.3}OpenStreet Map: GeoJSON representation}{92}{subsection.917}}
\newlabel{lst:slovakiafeature}{{5.8}{93}{Slovakian feature example}{lstlisting.918}{}}
\@writefile{lol}{\contentsline {lstlisting}{\numberline {5.8}Slovakian feature example}{93}{lstlisting.918}}
\@writefile{lof}{\contentsline {figure}{\numberline {5.10}{\ignorespaces Protected sites map\relax }}{93}{figure.caption.936}}
\newlabel{fig:slovakiamap}{{5.10}{93}{Protected sites map\relax }{figure.caption.936}{}}
\@writefile{toc}{\contentsline {section}{\numberline {5.5}SmartOpenData parcels dataset}{94}{section.937}}
\newlabel{sec:geoserverdemo}{{5.5}{94}{SmartOpenData parcels dataset}{section.937}{}}
\@writefile{lof}{\contentsline {figure}{\numberline {5.11}{\ignorespaces Dataset scheme\relax }}{94}{figure.caption.939}}
\newlabel{fig:parcelsdatascheme}{{5.11}{94}{Dataset scheme\relax }{figure.caption.939}{}}
\@writefile{toc}{\contentsline {subsection}{\numberline {5.5.1}Parcels data scheme}{95}{subsection.940}}
\@writefile{lof}{\contentsline {figure}{\numberline {5.12}{\ignorespaces Feature Types Details\relax }}{95}{figure.caption.941}}
\newlabel{fig:featuretypes}{{5.12}{95}{Feature Types Details\relax }{figure.caption.941}{}}
\@writefile{toc}{\contentsline {subsection}{\numberline {5.5.2}GeoServer and Openlayers}{96}{subsection.942}}
\newlabel{lst:parcelsquery}{{5.9}{96}{SMOData Dataset SPARQL query}{lstlisting.943}{}}
\@writefile{lol}{\contentsline {lstlisting}{\numberline {5.9}SMOData Dataset SPARQL query}{96}{lstlisting.943}}
\@writefile{lof}{\contentsline {figure}{\numberline {5.13}{\ignorespaces Openlayers map\relax }}{96}{figure.caption.954}}
\newlabel{fig:smodmap}{{5.13}{96}{Openlayers map\relax }{figure.caption.954}{}}
\@writefile{toc}{\contentsline {subsection}{\numberline {5.5.3}Geo-filtering: ECQL}{97}{subsection.955}}
\@writefile{lof}{\contentsline {figure}{\numberline {5.14}{\ignorespaces SmartOpenData layout\relax }}{97}{figure.caption.956}}
\newlabel{fig:smod}{{5.14}{97}{SmartOpenData layout\relax }{figure.caption.956}{}}
\@setckpt{5-use-case}{
\setcounter{page}{98}
\setcounter{equation}{0}
\setcounter{enumi}{4}
\setcounter{enumii}{0}
\setcounter{enumiii}{0}
\setcounter{enumiv}{0}
\setcounter{footnote}{14}
\setcounter{mpfootnote}{0}
\setcounter{part}{0}
\setcounter{chapter}{5}
\setcounter{section}{5}
\setcounter{subsection}{3}
\setcounter{subsubsection}{0}
\setcounter{paragraph}{0}
\setcounter{subparagraph}{0}
\setcounter{figure}{14}
\setcounter{table}{1}
\setcounter{parentequation}{0}
\setcounter{cor}{0}
\setcounter{thm}{0}
\setcounter{LT@tables}{1}
\setcounter{LT@chunks}{2}
\setcounter{ContinuedFloat}{0}
\setcounter{KVtest}{0}
\setcounter{subfigure}{0}
\setcounter{subfigure@save}{0}
\setcounter{lofdepth}{1}
\setcounter{subtable}{0}
\setcounter{subtable@save}{0}
\setcounter{lotdepth}{1}
\setcounter{lstnumber}{11}
\setcounter{Item}{8}
\setcounter{Hfootnote}{66}
\setcounter{bookmark@seq@number}{88}
\setcounter{lstlisting}{9}
\setcounter{section@level}{0}
}
