\relax 
\providecommand\hyper@newdestlabel[2]{}
\@writefile{toc}{\contentsline {chapter}{\numberline {6}Conclusions and future lines}{99}{chapter.957}}
\@writefile{lof}{\addvspace {10\p@ }}
\@writefile{lot}{\addvspace {10\p@ }}
\newlabel{chap:conclusions}{{6}{99}{Conclusions and future lines}{chapter.957}{}}
\@writefile{toc}{\contentsline {section}{\numberline {6.1}Project outcomes}{101}{section.958}}
\@writefile{toc}{\contentsline {section}{\numberline {6.2}Achieved goals}{102}{section.959}}
\@writefile{toc}{\contentsline {section}{\numberline {6.3}Conclusions}{102}{section.961}}
\@writefile{toc}{\contentsline {section}{\numberline {6.4}Future work}{103}{section.963}}
\@setckpt{6-conclusions}{
\setcounter{page}{105}
\setcounter{equation}{0}
\setcounter{enumi}{4}
\setcounter{enumii}{0}
\setcounter{enumiii}{0}
\setcounter{enumiv}{0}
\setcounter{footnote}{3}
\setcounter{mpfootnote}{0}
\setcounter{part}{0}
\setcounter{chapter}{6}
\setcounter{section}{4}
\setcounter{subsection}{0}
\setcounter{subsubsection}{0}
\setcounter{paragraph}{0}
\setcounter{subparagraph}{0}
\setcounter{figure}{0}
\setcounter{table}{0}
\setcounter{parentequation}{0}
\setcounter{cor}{0}
\setcounter{thm}{0}
\setcounter{LT@tables}{1}
\setcounter{LT@chunks}{2}
\setcounter{ContinuedFloat}{0}
\setcounter{KVtest}{0}
\setcounter{subfigure}{0}
\setcounter{subfigure@save}{0}
\setcounter{lofdepth}{1}
\setcounter{subtable}{0}
\setcounter{subtable@save}{0}
\setcounter{lotdepth}{1}
\setcounter{lstnumber}{11}
\setcounter{Item}{8}
\setcounter{Hfootnote}{69}
\setcounter{bookmark@seq@number}{93}
\setcounter{lstlisting}{0}
\setcounter{section@level}{0}
}
