\relax 
\providecommand\hyper@newdestlabel[2]{}
\@writefile{toc}{\contentsline {chapter}{\numberline {B}User Manual}{109}{appendix.988}}
\@writefile{lof}{\addvspace {10\p@ }}
\@writefile{lot}{\addvspace {10\p@ }}
\newlabel{apdx:usermanual}{{B}{109}{User Manual}{appendix.988}{}}
\@writefile{toc}{\contentsline {section}{\numberline {B.1}Create new widget}{111}{section.989}}
\newlabel{sec:createwidget}{{B.1}{111}{Create new widget}{section.989}{}}
\@writefile{lol}{\contentsline {lstlisting}{\numberline {B.1}"Sefarad widget template"}{111}{lstlisting.991}}
\@setckpt{Appendix-manual}{
\setcounter{page}{112}
\setcounter{equation}{0}
\setcounter{enumi}{4}
\setcounter{enumii}{0}
\setcounter{enumiii}{0}
\setcounter{enumiv}{0}
\setcounter{footnote}{1}
\setcounter{mpfootnote}{0}
\setcounter{part}{0}
\setcounter{chapter}{2}
\setcounter{section}{1}
\setcounter{subsection}{0}
\setcounter{subsubsection}{0}
\setcounter{paragraph}{0}
\setcounter{subparagraph}{0}
\setcounter{figure}{0}
\setcounter{table}{0}
\setcounter{parentequation}{0}
\setcounter{cor}{0}
\setcounter{thm}{0}
\setcounter{LT@tables}{1}
\setcounter{LT@chunks}{2}
\setcounter{ContinuedFloat}{0}
\setcounter{KVtest}{0}
\setcounter{subfigure}{0}
\setcounter{subfigure@save}{0}
\setcounter{lofdepth}{1}
\setcounter{subtable}{0}
\setcounter{subtable@save}{0}
\setcounter{lotdepth}{1}
\setcounter{lstnumber}{31}
\setcounter{Item}{8}
\setcounter{Hfootnote}{75}
\setcounter{bookmark@seq@number}{99}
\setcounter{lstlisting}{1}
\setcounter{section@level}{0}
}
