\relax 
\providecommand\hyper@newdestlabel[2]{}
\@writefile{toc}{\contentsline {chapter}{\numberline {A}Installing and configuring Sefarad}{105}{appendix.965}}
\@writefile{lof}{\addvspace {10\p@ }}
\@writefile{lot}{\addvspace {10\p@ }}
\newlabel{apdx:installsefarad}{{A}{105}{Installing and configuring Sefarad}{appendix.965}{}}
\@writefile{toc}{\contentsline {section}{\numberline {A.1}Installation}{107}{section.966}}
\@writefile{toc}{\contentsline {subsection}{\numberline {A.1.1}Requirements}{107}{subsection.967}}
\@writefile{toc}{\contentsline {subsection}{\numberline {A.1.2}Installation steps}{107}{subsection.972}}
\@setckpt{Appendix-installation}{
\setcounter{page}{109}
\setcounter{equation}{0}
\setcounter{enumi}{4}
\setcounter{enumii}{0}
\setcounter{enumiii}{0}
\setcounter{enumiv}{0}
\setcounter{footnote}{5}
\setcounter{mpfootnote}{0}
\setcounter{part}{0}
\setcounter{chapter}{1}
\setcounter{section}{1}
\setcounter{subsection}{2}
\setcounter{subsubsection}{0}
\setcounter{paragraph}{0}
\setcounter{subparagraph}{0}
\setcounter{figure}{0}
\setcounter{table}{0}
\setcounter{parentequation}{0}
\setcounter{cor}{0}
\setcounter{thm}{0}
\setcounter{LT@tables}{1}
\setcounter{LT@chunks}{2}
\setcounter{ContinuedFloat}{0}
\setcounter{KVtest}{0}
\setcounter{subfigure}{0}
\setcounter{subfigure@save}{0}
\setcounter{lofdepth}{1}
\setcounter{subtable}{0}
\setcounter{subtable@save}{0}
\setcounter{lotdepth}{1}
\setcounter{lstnumber}{3}
\setcounter{Item}{8}
\setcounter{Hfootnote}{74}
\setcounter{bookmark@seq@number}{97}
\setcounter{lstlisting}{0}
\setcounter{section@level}{0}
}
