\relax 
\providecommand\hyper@newdestlabel[2]{}
\providecommand\HyperFirstAtBeginDocument{\AtBeginDocument}
\HyperFirstAtBeginDocument{\ifx\hyper@anchor\@undefined
\global\let\oldcontentsline\contentsline
\gdef\contentsline#1#2#3#4{\oldcontentsline{#1}{#2}{#3}}
\global\let\oldnewlabel\newlabel
\gdef\newlabel#1#2{\newlabelxx{#1}#2}
\gdef\newlabelxx#1#2#3#4#5#6{\oldnewlabel{#1}{{#2}{#3}}}
\AtEndDocument{\ifx\hyper@anchor\@undefined
\let\contentsline\oldcontentsline
\let\newlabel\oldnewlabel
\fi}
\fi}
\global\let\hyper@last\relax 
\gdef\HyperFirstAtBeginDocument#1{#1}
\providecommand\HyField@AuxAddToFields[1]{}
\providecommand\HyField@AuxAddToCoFields[2]{}
\@input{0-preamble.aux}
\@input{A-resumen.aux}
\@input{B-abstract.aux}
\@input{D-agradecimientos.aux}
\@input{E-contents.aux}
\@input{1-introduction.aux}
\@input{2-enablingtechnologies.aux}
\@input{3-requisites.aux}
\@input{4-architecture.aux}
\@input{5-use-case.aux}
\@input{6-conclusions.aux}
\@input{Appendix-installation.aux}
\@input{Appendix-manual.aux}
\bibstyle{ieeetr}
\bibdata{biblio/ref}
\@writefile{toc}{\contentsline {chapter}{Bibliography}{112}{section*.1022}}
\bibcite{linkeddataprinciples}{1}
\bibcite{geolinkeddata1}{2}
\bibcite{geolinkeddata2}{3}
\bibcite{robertobermejo}{4}
\bibcite{geolinkeddata3}{5}
\bibcite{geoserverbeginners}{6}
\bibcite{openlayerscookbook}{7}
\bibcite{openlayersstarter}{8}
\bibcite{automatewithgrunt}{9}
\bibcite{phpmongodb}{10}
